set_ID,problem_ID,number_of_inputs,maximum_requests_per_user,function_name,comment
1,1,10,1000,gfun_apple,Interesting problem
1,2,2,200,gfun_peach,Less interesting problem
1,3,4,300,gfun_grape,It's with grape so must be interesting
2,1,10,2000,gfun_plum,Cool problem
3,1,7,500,gfun_orange,Very cool problem
